{
  "version": 2,
  "name": "qantas-campers",
  "builds": [
  	{ "src": "server/*.js", "use": "@now/node-server" },
  	{ "src": "package.json", "use": "@now/next" }
  ],
  "routes": [
  	{"src": "/api/.*", "dest": "/server/index.js" },
    {"src": "/(?<type>[^/]+)$", "dest": "/?type=$type" },
  	{"src": "/(.*)", "dest": "/index.js" }
  ],
  "env": {
    "NODE_ENV": "production"
  }
}
